module mod

go 1.15

require (
	github.com/Netflix/go-env v0.0.0-20200908232752-3e802f601e28
	github.com/golang-migrate/migrate/v4 v4.13.0
	github.com/gorilla/handlers v1.4.2
	github.com/gorilla/mux v1.7.4
	github.com/lib/pq v1.8.0
)
